<svg xmlns="http://www.w3.org/2000/svg" width="8.205" height="16.5" viewBox="0 0 8.205 16.5" fill="#fff">
  <path id="FB" d="M21.345,3.341H23.09a.212.212,0,0,0,.215-.215V.415A.212.212,0,0,0,23.09.2H20.7a3.617,3.617,0,0,0-2.685.913,3.085,3.085,0,0,0-.832,2.309V5.354H15.815a.212.212,0,0,0-.215.215V8.2a.212.212,0,0,0,.215.215h1.369v7.57a.212.212,0,0,0,.215.215H20.62a.212.212,0,0,0,.215-.215v-7.6h1.96a.18.18,0,0,0,.188-.161s.215-1.289.3-2.658a.382.382,0,0,0-.054-.161c-.027-.054-.081-.054-.134-.054H20.835V3.77A.58.58,0,0,1,21.345,3.341Zm-.7,2.416h2.228c-.081.966-.215,1.879-.268,2.228H20.62a.212.212,0,0,0-.215.215v7.6H17.613V8.2a.212.212,0,0,0-.215-.215H16.03v-2.2H17.4a.212.212,0,0,0,.215-.215V3.395a2.753,2.753,0,0,1,.7-1.987A3.256,3.256,0,0,1,20.7.6h2.2V2.938H21.345a.976.976,0,0,0-.913.832v1.8A.207.207,0,0,0,20.647,5.757Z" transform="translate(-15.35 0.05)" fill="none" stroke="#fff" stroke-width="0.5"/>
</svg>
